Data_Processing_with_R_Student_Friendly_Version
…
for (item in sample(list.files(), 39, replace=FALSE)){ # looping through a randomly-chosen 39 files in the present folder
  json_file <- fromJSON(file = item) # loading the json file
  tibble <- tibble(comms = json_file) # turning the json file into a tibble
  if (exists("conti")){ # boolean for if the data frame already exists
    new_conti <- tibble %>% unnest_wider(comms) 
    conti <- rbind(conti, new_conti) # combining old & new data frames by row
    } else { # if the data frame does not exist
      conti <- tibble %>% unnest_wider(comms) 
    }
}

conti

# A tibble: 7,300 × 4
   ts                         from                                 to      body 
   <chr>                      <chr>                                <chr>   <chr>
 1 2021-12-16T05:42:50.813684 bio@q3mcco35auwcstmt.onion           tinile… when…
 2 2021-12-16T05:43:05.881116 bio@q3mcco35auwcstmt.onion           tinile… 7b2j…
 3 2021-12-16T05:59:18.142870 chain@q3mcco35auwcstmt.onion         love@q… Hey  
 4 2021-12-16T06:02:14.763507 tom@q3mcco35auwcstmt.onion           green@… so t…
 5 2021-12-16T07:39:11.107385 cybergangster@q3mcco35auwcstmt.onion tramp@… tut? 
 6 2021-12-16T07:51:53.426084 bio@q3mcco35auwcstmt.onion           defend… Hey  
 7 2021-12-16T07:58:13.249737 veron@q3mcco35auwcstmt.onion         best@q… hi, …
 8 2021-12-16T08:06:27.729789 grom@q3mcco35auwcstmt.onion          zevs@q… hi m…
 9 2021-12-16T08:06:29.047940 grom@q3mcco35auwcstmt.onion          zevs@q… syst…
10 2021-12-16T08:06:49.961911 grom@q3mcco35auwcstmt.onion          zevs@q… but …
# … with 7,290 more rows
…
For our text analysis, most of the time, there are certain parts of the text in the data frame that are not necessary, including the hour, minute, and second, in the timestamps, and the extensions of the emails. They can be removed using the sub() function and regular expressions:

# Creating a copy of the data frame in case I need to use the original later:
conti1 <- conti

# keeping only the date for the messages and not the time:
conti1$ts <- sub("T[0-9]*:[0-9]*:[0-9]*.[0-9]*", "", conti1$ts) 
# keeping only the name for each email:
conti1$to <- sub("[\\@|\\.]+[A-Za-z0-9.]*", "", conti1$to) 
conti1$from <- sub("[\\@|\\.]+[A-Za-z0-9.]*", "", conti1$from) 

conti1

# A tibble: 7,300 × 4
   ts         from          to       body                                       
   <chr>      <chr>         <chr>    <chr>                                      
 1 2021-12-16 bio           tiniles  when you show up let me know plz           
 2 2021-12-16 bio           tiniles  7b2jOXuTTMAoogMh8uBqteofbpkoGSEPM73s0cLysP…
 3 2021-12-16 chain         love     Hey                                        
 4 2021-12-16 tom           green    so there was nothing                       
 5 2021-12-16 cybergangster tramp    tut?                                       
 6 2021-12-16 bio           defender Hey                                        
 7 2021-12-16 veron         best     hi, well, it went really well there        
 8 2021-12-16 grom          zevs     hi me!                                     
 9 2021-12-16 grom          zevs     systems - ok, you need to fix the domain f…
10 2021-12-16 grom          zevs     but we don’t load this bot much, so it’s c…
# … with 7,290 more rows
…
Specific Text

Among the messages in the data set, there may be messages related to subjects that we are interested in, drowned in many more messages about other subjects that may or may not be meaningful, making them hard to see. Using regular expressions, we will try to filter for those messages, and see if we can find any useful information within them.

Other than Bitcoin, there are many other Cryptocurrencies. We will now search for rows with text that mention some popular Cryptocurrencies:

crypto_mentions <- conti_not_encrypted[str_detect(conti_not_encrypted$body, "(NFT|[Bb]itcoin|[Ee]ther[ie]um|[Pp]olkadot|[Bb]inance|[Tt]ether|USDT|usdt|[Cc]ardano|[Cc]hainlink|[Rr]ipple|[Mm]onero|[Ll]itecoin|USD|usd|IOTA|iota|[Dd]ogecoin|[Cc]rypto|[Cc]oin)"), ] %>% 
  distinct(body, .keep_all = TRUE)

crypto_mentions

# A tibble: 53 × 4
   ts         from    to      body                                              
   <chr>      <chr>   <chr>   <chr>                                             
 1 2021-12-16 skippy  bio     "If you say that 40,000,000 is an unrealistic num…
 2 2021-05-05 veron   bentley "do we have one cryptor to work with?"            
 3 2021-05-05 bentley veron   "several cryptors"                                
 4 2021-05-05 mango   stern   "And here's another. I suggest for Verona to alwa…
 5 2021-08-31 stern   dandis  "1) we want to create our own crypto system accor…
 6 2021-08-31 bentley mango   "Project leo - 7 cryptos Build machine\n\nBC\ngro…
 7 2021-12-13 many    bentley "have 100$? I’ll give 150) yes, it’s just that he…
 8 2021-11-03 bentley mango   "Project Leo -6 crypts buildmachine\n\nBC\ngroup …
 9 2021-11-12 ghost   neo     "7ZHxp473fbjSO8FoUsPvmlVV6A782VviJN7ckJinwwjzBHt4…
10 2021-11-12 skippy  bio     "trump if he comes then here is the answer:\n\nFR…
# … with 43 more rows
…
By “Frequency Analysis”, we are referring to the how often terms appear in documents, or “Term Frequency”. But how often a word appears, does not always show how important it is.

It is said that “tf_idf”, the product of term frequency and inverse document frequency, which decreases for words that are more commonly in the documents and increases for words that are more rarely used, can be used to rank the importance of the terms.

To begin calculating tf_idf, we need a data frame with columns that contain: words, the number of each word, and something that groups the words (Ex. Documents that groups of words are from)

library(tidytext) # importing this library for the unnest_tokens() function

conti_terms <- conti_not_encrypted %>%
  unnest_tokens(word, body) %>% # unnesting sentences into words
  count(ts, word, sort=TRUE) # counting each word for each date & sorting them in descending order

conti_terms

# A tibble: 13,266 × 3
   ts         word      n
   <chr>      <chr> <int>
 1 2021-08-31 the     612
 2 2021-09-02 the     394
 3 2021-06-08 to      368
 4 2021-06-08 and     349
 5 2021-06-08 who     328
 6 2021-08-31 to      306
 7 2021-08-31 is      276
 8 2021-06-08 what    251
 9 2021-08-31 in      248
10 2021-08-31 i       237
# … with 13,256 more rows
…
# creating a data frame of custom words:
additional_words = data.frame(word = c("AD", "DA", "host", "hosts", "bitcoin", "crypto", "cryptocurrency", "credentials", "WMIC", "network", "mimikatz", "firewall", "SQL", "shares", "Citrix", "FUD", "shellcode", "cash", "jabber", "Emotet", "Trickbot", "BazarBackdoor", "Ryuk", "decrypted", "decrypt", "message", "bro", "error", "encrypted", "encrypt", "trends", "admin"))

# adding those custom words to the english words dataframe by row:
english_words = rbind(english_words, additional_words)

Now, we can use the inner_join() function to remove any words in our data not within our english words:

conti_terms2 <- inner_join(conti_terms, english_words, by = "word")

conti_terms2

# A tibble: 9,902 × 3
   ts         word      n
   <chr>      <chr> <int>
 1 2021-08-31 the     612
 2 2021-09-02 the     394
 3 2021-06-08 to      368
 4 2021-06-08 and     349
 5 2021-06-08 who     328
 6 2021-08-31 to      306
 7 2021-08-31 is      276
 8 2021-06-08 what    251
 9 2021-08-31 in      248
10 2021-08-31 i       237
# … with 9,892 more rows
…
Now, we will calculate tf_idf using the bind_tf_idf() function:

conti_tf_idf <- conti_terms2 %>%
  bind_tf_idf(word, ts, n) # calculating tf_idf using required columns

conti_tf_idf

# A tibble: 9,902 × 6
   ts         word      n     tf    idf  tf_idf
   <chr>      <chr> <int>  <dbl>  <dbl>   <dbl>
 1 2021-08-31 the     612 0.0558 0.0800 0.00447
 2 2021-09-02 the     394 0.0694 0.0800 0.00555
 3 2021-06-08 to      368 0.0643 0.0526 0.00338
 4 2021-06-08 and     349 0.0610 0.137  0.00836
 5 2021-06-08 who     328 0.0573 0.830  0.0476 
 6 2021-08-31 to      306 0.0279 0.0526 0.00147
 7 2021-08-31 is      276 0.0252 0.137  0.00345
 8 2021-06-08 what    251 0.0438 0.262  0.0115 
 9 2021-08-31 in      248 0.0226 0.167  0.00378
10 2021-08-31 i       237 0.0216 0.137  0.00296
# … with 9,892 more rows
…
Observations: Most of these words do not look very important. Perhaps it is the fault of the random sample, or that the tf_idf values weren’t calculated with suitable inputs.

Bigrams

Single word tokens (unigrams) sometimes does not give us enough information. In that case, we can use more words, like with two word tokens (bigrams):

conti_bigrams <- conti_not_encrypted %>%
  unnest_tokens(bigram, body, token = "ngrams", n = 2) %>% # unnesting sentences into bigrams
  count(ts, bigram, sort=TRUE) # counting each word & making a "n" column w/ counts in descending order

conti_bigrams

# A tibble: 24,559 × 3
   ts         bigram                n
   <chr>      <chr>             <int>
 1 2021-06-08 and what            165
 2 2021-06-08 a guru              164
 3 2021-06-08 blockchain and      164
 4 2021-06-08 considers himself   164
 5 2021-06-08 himself a           164
 6 2021-06-08 to develop          164
 7 2021-06-08 to go               164
 8 2021-06-08 what to             164
 9 2021-06-08 where to            164
10 2021-06-08 who considers       164
# … with 24,549 more rows

We will remove the rows with NA (null) values, which are not needed in the data frame:

conti_bigrams <- conti_bigrams %>% drop_na(bigram) # dropping rows where bigram column has NA value

There are readable and unreadable words in the two columns. These will need to be cleaned. For that, the bigrams will be split into two columns, and each will be checked. Stopwords will also be removed from both columns.

conti_bigrams_separated <- conti_bigrams %>%
  separate(bigram, c("word1", "word2"), sep = " ") # separating 2 words strings into 2 columns with 1 word each

conti_bigrams_separated

# A tibble: 24,523 × 4
   ts         word1      word2         n
   <chr>      <chr>      <chr>     <int>
 1 2021-06-08 and        what        165
 2 2021-06-08 a          guru        164
 3 2021-06-08 blockchain and         164
 4 2021-06-08 considers  himself     164
 5 2021-06-08 himself    a           164
 6 2021-06-08 to         develop     164
 7 2021-06-08 to         go          164
 8 2021-06-08 what       to          164
 9 2021-06-08 where      to          164
10 2021-06-08 who        considers   164
# … with 24,513 more rows
…
conti_bigrams_separated2 <- conti_bigrams_separated2 %>%
  filter((!word1 %in% stop_words$word)) %>% # to remove rows where word1 column has stopwords 
  filter((!word2 %in% stop_words$word)) # to remove rows where word2 column has stopwords

Now, we’ll unite the words in both columns back to the original bigrams using the unite() function:

conti_bigrams2 <- conti_bigrams_separated2 %>%
  unite(bigram, word1, word2, sep = " ") # uniting the words in both columns back to the original bigrams

conti_bigrams2

# A tibble: 1,178 × 3
   ts         bigram                n
   <chr>      <chr>             <int>
 1 2021-06-08 crypto trends        92
 2 2021-03-12 results successes    82
 3 2021-08-31 browser domain       43
 4 2021-08-31 created expires      43
 5 2021-08-31 expires path         36
 6 2021-08-31 text plain           32
 7 2021-08-31 form data            28
 8 2021-08-31 forbidden text       24
 9 2021-08-31 disposition form     21
10 2021-08-31 create table         16
# … with 1,168 more rows
…
conti_bigrams_tf_idf <- conti_bigrams2 %>%
  count(ts, bigram) %>% # counting # times each bigram appears for each date
  bind_tf_idf(bigram, ts, n) %>% # calculating & making columns for tf, idf, tf_idf
  arrange(desc(tf_idf)) # sorting rows by descending tf_idf

conti_bigrams_tf_idf

# A tibble: 1,178 × 6
   ts         bigram                 n    tf   idf tf_idf
   <chr>      <chr>              <int> <dbl> <dbl>  <dbl>
 1 2021-04-24 extra hands            1  1     3.58  3.58 
 2 2021-08-21 pancake stubble        1  1     3.58  3.58 
 3 2022-02-12 characters minimum     1  1     3.58  3.58 
 4 2021-07-24 fuck bots              1  0.5   3.58  1.79 
 5 2021-07-24 zeus writes            1  0.5   3.58  1.79 
 6 2022-01-03 rep toad               1  0.5   3.58  1.79 
 7 2022-01-03 true health            1  0.5   3.58  1.79 
 8 2022-01-19 dark realm             1  0.5   3.58  1.79 
 9 2022-01-19 leave urgently         1  0.5   3.58  1.79 
10 2021-12-05 british hurleys        1  0.25  3.58  0.896
# … with 1,168 more rows
…
weight: the number associated with each relationship. It can be used to show which from-to relationship is greater or less than others

Creating a dataframe with the 3 required variables:

conti_bigrams_separated3 <- conti_bigrams_separated2 %>%
  group_by(word1, word2) %>%
  summarize(n = sum(n)) # summing counts for unique word1 word2 combinations

`summarise()` has grouped output by 'word1'. You can override using the
`.groups` argument.

conti_bigrams_separated3

# A tibble: 1,050 × 3
# Groups:   word1 [647]
   word1        word2         n
   <chr>        <chr>     <int>
 1 abused       servers       1
 2 accept       payments      1
 3 access       unlimited     1
 4 accidentally noticed       1
 5 account      lags         11
 6 account      settings     11
 7 account      tomorrow      1
 8 accounts     da            2
 9 accounts     team          1
10 active       accounts      2
# … with 1,040 more rows
…
Websites

Of the unreadable terms, there are websites that may be significant. Here, we will create a table to count the mention of each website:

unreadable_terms <- conti_terms %>%
  filter(!word %in% english_words$word) # finding unreadable words by filtering for those not in readable words
  
websites <- unreadable_terms[str_detect(unreadable_terms$word, "\\.(com|gov|net|org|co|uk|us|edu|info|xyz|ly|site)"), ] %>% # filtering for website strings ending in these more common extensions
  mutate(word = str_remove_all(word, "www.")) %>% # removing www. to make websites that are the same, but may or may not have www., match
  group_by(word) %>%
  summarize(n = sum(n))

websites

# A tibble: 55 × 2
   word                   n
   <chr>              <int>
 1 acesalfred.com_tom     1
 2 alasu.edu              8
 3 asunet.alasu.edu       4
 4 avcheck.net            1
 5 bartholaraka.com       1
 6 blackbaud.com          2
 7 boncointunisie.com     1
 8 caranabaz.com          1
 9 cehgroup.com           1
10 client.country         1
# … with 45 more rows
…
conti_lda <- LDA(conti_dtm, k = 4, control = list(seed = 1234)) # Creating a LDA (Latent Dirichlet Allocation) model with supposedly 4 topics

conti_lda

A LDA_VEM topic model with 4 topics.

Observation: The larger the number of topics we are making the model for, the more time running the function takes.

Tidying the model result using the tidy() function:

conti_topics <- tidy(conti_lda, matrix = "beta")  # using argument matrix = "beta" produces a column w/ the probability that a term is for a particular topic

conti_topics

# A tibble: 19,144 × 3
   topic term    beta
   <int> <chr>  <dbl>
 1     1 the   0.0427
 2     2 the   0.0204
 3     3 the   0.0506
 4     4 the   0.0337
 5     1 to    0.0216
 6     2 to    0.0479
 7     3 to    0.0293
 8     4 to    0.0193
 9     1 and   0.0117
10     2 and   0.0431
# … with 19,134 more rows

There are too many terms in the data frame, and many of them are momentarily indecipherable. We will remove those by filtering them with the help of our english words, websites, and stopwords:

conti_topics2 <- conti_topics %>%
  filter((term %in% english_words$word)|(term %in% websites$word)) %>% # filtering to keep only english words or websites from previous data frames that we made
  filter(!term %in% stop_words$word) %>% # removing stop words from data frame
  group_by(topic) %>% # grouping the terms by their documents
  slice_max(beta, n = 20) %>% # getting only the 20 w/ the top beta values for each topic
  ungroup() %>%
  arrange(topic, -beta) # sorting the tibble by descending beta for each topic

conti_topics2

# A tibble: 80 × 3
   topic term       beta
   <int> <chr>     <dbl>
 1     1 fields  0.00806
 2     1 data    0.00751
 3     1 text    0.00696
 4     1 added   0.00620
 5     1 domain  0.00613
 6     1 created 0.00579
 7     1 path    0.00523
 8     1 browser 0.00517
 9     1 line    0.00496
10     1 field   0.00489
# … with 70 more rows
…
